[
  {
   "kod": "1",
   "ertek": "Személyazonosító igazolvány"
  },
  {
   "kod": "2",
   "ertek": "Útlevél"
  },
  {
   "kod": "3",
   "ertek": "Vezetői engedély"
  },
  {
   "kod": "4",
   "ertek": "Egyéb"
  },
  {
   "kod": "5",
   "ertek": "EGT által elfogadott egyéb okmány"
  },
  {
   "kod": "6",
   "ertek": "Ideiglenes személyazonosító igazolvány"
  }
]